…
sum(FL.contr_by_party$n)

## [1] 404968

From this we can see that the total number of 2016 presidential campaign finance contributions is near 405K, while the Democratic party took around 257K and almost 1.75 times of the number of donations make to the Republican party, which is 147K, and other parties took very few numbers of donations compared with Democrat party and Republican party, with about 1.3K.

#Create Candidate dataframe with Descending order
cand_group <- group_by(FL, cand_nm)
FL.contr_by_cand <- summarize(cand_group,
                               sum_cand = sum(contb_receipt_amt),
                               n = n())

FL.contr_by_cand[rev(order(FL.contr_by_cand$n)),]

## # A tibble: 25 x 3
##                      cand_nm   sum_cand      n
##                        <chr>      <dbl>  <int>
##  1   Clinton, Hillary Rodham 21451718.3 176790
##  2          Sanders, Bernard  3355944.0  79631
##  3          Trump, Donald J. 12385981.2  74156
##  4 Cruz, Rafael Edward 'Ted'  2775052.6  27436
##  5              Rubio, Marco  6634027.2  17993
##  6       Carson, Benjamin S.  1843217.8  15496
##  7                 Bush, Jeb  6325905.0   5401
##  8            Fiorina, Carly   412640.1   2003
##  9                Paul, Rand   411286.7   1950
## 10           Kasich, John R.   784383.7   1303
## # ... with 15 more rows
…
After looking at the average amount, we can see that now Democrat is almost 2.6 times of Republican in the average contribution amount.

Now lets see the contribution amount distribution by candidates.

FL.contr_by_cand[rev(order(FL.contr_by_cand$sum_cand)),]

## # A tibble: 25 x 3
##                      cand_nm   sum_cand      n
##                        <chr>      <dbl>  <int>
##  1   Clinton, Hillary Rodham 21451718.3 176790
##  2          Trump, Donald J. 12385981.2  74156
##  3              Rubio, Marco  6634027.2  17993
##  4                 Bush, Jeb  6325905.0   5401
##  5          Sanders, Bernard  3355944.0  79631
##  6 Cruz, Rafael Edward 'Ted'  2775052.6  27436
##  7       Carson, Benjamin S.  1843217.8  15496
##  8           Kasich, John R.   784383.7   1303
##  9            Fiorina, Carly   412640.1   2003
## 10                Paul, Rand   411286.7   1950
## # ... with 15 more rows
…
Remember earilier we saw Hillary Cliton received the most contribution amount and followed by Donald Trump and then Rubio Marco received the third most contribution amount. Now from the boxplot, Perry James R. (Rick) has the higherst median althought very few number and amount of contributions. Donald Trump and Hilary Clition seem to have very low median, but they both has a lot of outliers above the median amount value.

Now we can explore more within parties.

#Create candidate datafram
candidate_group <- group_by(FL, party, cand_nm)
FL.contr_by_candidate <- summarize(candidate_group,
                                   sum_candidate = sum(contb_receipt_amt),
                                   mean_can = mean(contb_receipt_amt),
                                   n = n())

FL.contr_by_candidate[rev(order(FL.contr_by_candidate$sum_candidate)),]

## # A tibble: 22 x 5
## # Groups:   party [2]
##         party                   cand_nm sum_candidate   mean_can      n
##         <chr>                     <chr>         <dbl>      <dbl>  <int>
##  1   Democrat   Clinton, Hillary Rodham    21451718.3  121.34011 176790
##  2 Republican          Trump, Donald J.    12385981.2  167.02602  74156
##  3 Republican              Rubio, Marco     6634027.2  368.70045  17993
##  4 Republican                 Bush, Jeb     6325905.0 1171.24699   5401
##  5   Democrat          Sanders, Bernard     3355944.0   42.14369  79631
##  6 Republican Cruz, Rafael Edward 'Ted'     2775052.6  101.14640  27436
##  7 Republican       Carson, Benjamin S.     1843217.8  118.94797  15496
##  8 Republican           Kasich, John R.      784383.7  601.98285   1303
##  9 Republican            Fiorina, Carly      412640.1  206.01102   2003
## 10 Republican                Paul, Rand      411286.7  210.91623   1950
## # ... with 12 more rows
…
#Create candidate_party dataframe for percentage calculation
can_party <- left_join(FL.contr_by_candidate, FL.contr_by_party, by = 'party')

can_party

## # A tibble: 22 x 9
## # Groups:   party [?]
##         party                   cand_nm sum_candidate   mean_can    n.x
##         <chr>                     <chr>         <dbl>      <dbl>  <int>
##  1   Democrat   Clinton, Hillary Rodham    21451718.3  121.34011 176790
##  2   Democrat          Lessig, Lawrence       16057.5  422.56579     38
##  3   Democrat   O'Malley, Martin Joseph      152823.3 1039.61449    147
##  4   Democrat          Sanders, Bernard     3355944.0   42.14369  79631
##  5   Democrat     Webb, James Henry Jr.       14400.0  450.00000     32
##  6 Republican                 Bush, Jeb     6325905.0 1171.24699   5401
##  7 Republican       Carson, Benjamin S.     1843217.8  118.94797  15496
##  8 Republican  Christie, Christopher J.      284939.2 1410.59035    202
##  9 Republican Cruz, Rafael Edward 'Ted'     2775052.6  101.14640  27436
## 10 Republican            Fiorina, Carly      412640.1  206.01102   2003
## # ... with 12 more rows, and 4 more variables: sum_party <dbl>,
## #   number_of_candidate <int>, mean_party <dbl>, n.y <int>
…
